<svg id="Group_1" data-name="Group 1" xmlns="http://www.w3.org/2000/svg" width="405" height="77" viewBox="0 0 405 77">
  <rect id="Rectangle_1" data-name="Rectangle 1" width="405" height="20" transform="translate(0 28)" fill="#ea2330"/>
  <text id="THE_GYM" data-name="THE GYM" transform="translate(52 61)" fill="#fff" font-size="63" font-family="Montserrat-BlackItalic, Montserrat" font-weight="800" font-style="italic"><tspan x="0" y="0">THE GYM</tspan></text>
  <rect id="Rectangle_2" data-name="Rectangle 2" width="30" height="20" transform="translate(203 28)" fill="#ea2330" opacity="0.6"/>
</svg>
