<svg xmlns="http://www.w3.org/2000/svg" xmlns:xlink="http://www.w3.org/1999/xlink" width="1366" height="772" viewBox="0 0 1366 772">
  <defs>
    <clipPath id="clip-path">
      <path id="Path_14" data-name="Path 14" d="M1366,770H0V310.61L1366,0Z" fill="none" stroke="#707070" stroke-width="1"/>
    </clipPath>
  </defs>
  <g id="Group_20" data-name="Group 20" transform="translate(0 -2415)">
    <path id="Path_6" data-name="Path 6" d="M0,770H1366V188.61L0,0Z" transform="translate(0 2417)" fill="#ea2330"/>
    <g id="Mask_Group_4" data-name="Mask Group 4" transform="translate(0 2415)" clip-path="url(#clip-path)">
      <text id="THE_GYM" data-name="THE GYM" transform="translate(-592 770)" fill="#da2833" font-size="184" font-family="Montserrat-BlackItalic, Montserrat" font-weight="800" font-style="italic"><tspan x="0" y="0">THE GYM</tspan></text>
      <text id="THE_GYM-2" data-name="THE GYM" transform="translate(466 770)" fill="#da2833" font-size="184" font-family="Montserrat-BlackItalic, Montserrat" font-weight="800" font-style="italic"><tspan x="0" y="0">THE GYM</tspan></text>
    </g>
  </g>
</svg>
